<svg xmlns="http://www.w3.org/2000/svg" xmlns:xlink="http://www.w3.org/1999/xlink" width="34.47" height="28.867" viewBox="0 0 34.47 28.867">
  <defs>
    <clipPath id="clip-path">
      <rect id="Rectangle_35" data-name="Rectangle 35" width="34.47" height="28.867" transform="translate(0 0)" fill="#fff"/>
    </clipPath>
  </defs>
  <g id="add_to_basket" data-name="add to basket" transform="translate(0 0)">
    <g id="Group_3" data-name="Group 3" clip-path="url(#clip-path)">
      <path id="Path_13" data-name="Path 13" d="M33.16,8.737H29.48L23.65.717a1.75,1.75,0,0,0-2.83,2.06l4.34,5.96H12.32l4.34-5.96A1.75,1.75,0,0,0,13.83.717L8,8.737H4.32a1.308,1.308,0,0,0-1.31,1.31v.88a1.308,1.308,0,0,0,1.31,1.31h.43l.39,2.71a7.049,7.049,0,0,1,6.17,1.11v-2.51a1.31,1.31,0,0,1,2.62,0v6.12a.487.487,0,0,1-.01.12,7.176,7.176,0,0,1,.28,1.98,6.922,6.922,0,0,1-.54,2.7H28.7a2.617,2.617,0,0,0,2.6-2.25l1.42-9.98h.44a1.308,1.308,0,0,0,1.31-1.31v-.88a1.314,1.314,0,0,0-1.31-1.31M20.05,19.667a1.31,1.31,0,0,1-2.62,0v-6.12a1.31,1.31,0,0,1,2.62,0Zm6.12,0a1.31,1.31,0,0,1-2.62,0v-6.12a1.31,1.31,0,0,1,2.62,0Z" fill="#fff"/>
      <path id="Path_14" data-name="Path 14" d="M13.92,19.787a7.086,7.086,0,0,0-8.78-4.84,7.1,7.1,0,1,0,8.52,9.52,6.922,6.922,0,0,0,.54-2.7,7.176,7.176,0,0,0-.28-1.98m-1.32,4.68A6.134,6.134,0,1,1,5.27,15.9a6.244,6.244,0,0,1,1.83-.28,6.145,6.145,0,0,1,4.21,1.67,6.083,6.083,0,0,1,1.86,3.57,5.293,5.293,0,0,1,.07.9,6.042,6.042,0,0,1-.64,2.71" fill="#fff"/>
      <path id="Path_15" data-name="Path 15" d="M10.74,21.767a.546.546,0,0,1-.55.54H7.65v2.55a.546.546,0,0,1-.55.54H7.07a.528.528,0,0,1-.51-.55v-2.54H3.98a.525.525,0,0,1-.51-.54v-.05a.526.526,0,0,1,.55-.5H6.56v-2.54a.545.545,0,1,1,1.09,0v2.54h2.54a.548.548,0,0,1,.55.55" fill="#fff"/>
    </g>
  </g>
</svg>
